[ {
  "uid" : "6a54d70015602882",
  "name" : "test_update[MB]",
  "time" : {
    "start" : 1650631757738,
    "stop" : 1650631758032,
    "duration" : 294
  },
  "status" : "passed",
  "severity" : "normal"
}, {
  "uid" : "9dd8288b87fbec3",
  "name" : "test_update[NO]",
  "time" : {
    "start" : 1650631758049,
    "stop" : 1650631758407,
    "duration" : 358
  },
  "status" : "passed",
  "severity" : "normal"
}, {
  "uid" : "382abf8c40c189b7",
  "name" : "test_create[NO-Menu Mang Test-footer_menu670-desktop-200]",
  "time" : {
    "start" : 1650631755253,
    "stop" : 1650631755598,
    "duration" : 345
  },
  "status" : "passed",
  "severity" : "normal"
}, {
  "uid" : "1766b433e0c822cf",
  "name" : "test_create[MB-Menu Mang Test-footer_menu670-desktop-422]",
  "time" : {
    "start" : 1650631754622,
    "stop" : 1650631754933,
    "duration" : 311
  },
  "status" : "passed",
  "severity" : "normal"
}, {
  "uid" : "1952bed681da0a91",
  "name" : "test_delete[MB]",
  "time" : {
    "start" : 1650631758411,
    "stop" : 1650631759052,
    "duration" : 641
  },
  "status" : "passed",
  "severity" : "normal"
}, {
  "uid" : "b11d8b476ce5164c",
  "name" : "test_create[MB-Menu Mang Test-footer_menu584-cashier-200]",
  "time" : {
    "start" : 1650631755957,
    "stop" : 1650631756409,
    "duration" : 452
  },
  "status" : "passed",
  "severity" : "normal"
}, {
  "uid" : "7cfaa8ce4c327662",
  "name" : "test_delete[NO]",
  "time" : {
    "start" : 1650631759058,
    "stop" : 1650631759649,
    "duration" : 591
  },
  "status" : "passed",
  "severity" : "normal"
}, {
  "uid" : "256bd8a2255ed0e1",
  "name" : "test_index[MB]",
  "time" : {
    "start" : 1650631757044,
    "stop" : 1650631757373,
    "duration" : 329
  },
  "status" : "passed",
  "severity" : "normal"
}, {
  "uid" : "246e80e967a01a6e",
  "name" : "test_create[MB-Menu Mang Test-footer_menu670-desktop-200]",
  "time" : {
    "start" : 1650631754214,
    "stop" : 1650631754611,
    "duration" : 397
  },
  "status" : "passed",
  "severity" : "normal"
}, {
  "uid" : "5b3cf9ff872f97e1",
  "name" : "test_create[NO-Menu Mang Test2-footer_menu363-desktop-200]",
  "time" : {
    "start" : 1650631756715,
    "stop" : 1650631757021,
    "duration" : 306
  },
  "status" : "passed",
  "severity" : "normal"
}, {
  "uid" : "ecf580c0c972007d",
  "name" : "test_create[NO-Menu Mang Test-footer_menu482-mobile-200]",
  "time" : {
    "start" : 1650631755609,
    "stop" : 1650631755946,
    "duration" : 337
  },
  "status" : "passed",
  "severity" : "normal"
}, {
  "uid" : "7f3f8279552917c8",
  "name" : "test_index[NO]",
  "time" : {
    "start" : 1650631757377,
    "stop" : 1650631757721,
    "duration" : 344
  },
  "status" : "passed",
  "severity" : "normal"
}, {
  "uid" : "6a4f0b7f596cad6c",
  "name" : "test_create[MB-Menu Mang Test-footer_menu912-terminal-200]",
  "time" : {
    "start" : 1650631756414,
    "stop" : 1650631756705,
    "duration" : 291
  },
  "status" : "passed",
  "severity" : "normal"
}, {
  "uid" : "3011818567573f10",
  "name" : "test_create[MB-Menu Mang Test-footer_menu670-mobile-422]",
  "time" : {
    "start" : 1650631754943,
    "stop" : 1650631755231,
    "duration" : 288
  },
  "status" : "passed",
  "severity" : "normal"
} ]