{
  "uid" : "b1a8273437954620fa374b796ffaacdd",
  "name" : "behaviors",
  "children" : [ {
    "name" : "test_create[MB-Menu Mang Test-footer_menu670-desktop-200]",
    "uid" : "246e80e967a01a6e",
    "parentUid" : "b1a8273437954620fa374b796ffaacdd",
    "status" : "passed",
    "time" : {
      "start" : 1650631754214,
      "stop" : 1650631754611,
      "duration" : 397
    },
    "flaky" : false,
    "newFailed" : false,
    "newPassed" : false,
    "newBroken" : false,
    "retriesCount" : 0,
    "retriesStatusChange" : false,
    "parameters" : [ "'footer_menu670'", "200", "'Menu Mang Test'", "'desktop'", "'MB'" ]
  }, {
    "name" : "test_create[MB-Menu Mang Test-footer_menu670-desktop-422]",
    "uid" : "1766b433e0c822cf",
    "parentUid" : "b1a8273437954620fa374b796ffaacdd",
    "status" : "passed",
    "time" : {
      "start" : 1650631754622,
      "stop" : 1650631754933,
      "duration" : 311
    },
    "flaky" : false,
    "newFailed" : false,
    "newPassed" : false,
    "newBroken" : false,
    "retriesCount" : 0,
    "retriesStatusChange" : false,
    "parameters" : [ "'footer_menu670'", "422", "'Menu Mang Test'", "'desktop'", "'MB'" ]
  }, {
    "name" : "test_create[MB-Menu Mang Test-footer_menu670-mobile-422]",
    "uid" : "3011818567573f10",
    "parentUid" : "b1a8273437954620fa374b796ffaacdd",
    "status" : "passed",
    "time" : {
      "start" : 1650631754943,
      "stop" : 1650631755231,
      "duration" : 288
    },
    "flaky" : false,
    "newFailed" : false,
    "newPassed" : false,
    "newBroken" : false,
    "retriesCount" : 0,
    "retriesStatusChange" : false,
    "parameters" : [ "'footer_menu670'", "422", "'Menu Mang Test'", "'mobile'", "'MB'" ]
  }, {
    "name" : "test_create[NO-Menu Mang Test-footer_menu670-desktop-200]",
    "uid" : "382abf8c40c189b7",
    "parentUid" : "b1a8273437954620fa374b796ffaacdd",
    "status" : "passed",
    "time" : {
      "start" : 1650631755253,
      "stop" : 1650631755598,
      "duration" : 345
    },
    "flaky" : false,
    "newFailed" : false,
    "newPassed" : false,
    "newBroken" : false,
    "retriesCount" : 0,
    "retriesStatusChange" : false,
    "parameters" : [ "'footer_menu670'", "200", "'Menu Mang Test'", "'desktop'", "'NO'" ]
  }, {
    "name" : "test_create[NO-Menu Mang Test-footer_menu482-mobile-200]",
    "uid" : "ecf580c0c972007d",
    "parentUid" : "b1a8273437954620fa374b796ffaacdd",
    "status" : "passed",
    "time" : {
      "start" : 1650631755609,
      "stop" : 1650631755946,
      "duration" : 337
    },
    "flaky" : false,
    "newFailed" : false,
    "newPassed" : false,
    "newBroken" : false,
    "retriesCount" : 0,
    "retriesStatusChange" : false,
    "parameters" : [ "'footer_menu482'", "200", "'Menu Mang Test'", "'mobile'", "'NO'" ]
  }, {
    "name" : "test_create[MB-Menu Mang Test-footer_menu584-cashier-200]",
    "uid" : "b11d8b476ce5164c",
    "parentUid" : "b1a8273437954620fa374b796ffaacdd",
    "status" : "passed",
    "time" : {
      "start" : 1650631755957,
      "stop" : 1650631756409,
      "duration" : 452
    },
    "flaky" : false,
    "newFailed" : false,
    "newPassed" : false,
    "newBroken" : false,
    "retriesCount" : 0,
    "retriesStatusChange" : false,
    "parameters" : [ "'footer_menu584'", "200", "'Menu Mang Test'", "'cashier'", "'MB'" ]
  }, {
    "name" : "test_create[MB-Menu Mang Test-footer_menu912-terminal-200]",
    "uid" : "6a4f0b7f596cad6c",
    "parentUid" : "b1a8273437954620fa374b796ffaacdd",
    "status" : "passed",
    "time" : {
      "start" : 1650631756414,
      "stop" : 1650631756705,
      "duration" : 291
    },
    "flaky" : false,
    "newFailed" : false,
    "newPassed" : false,
    "newBroken" : false,
    "retriesCount" : 0,
    "retriesStatusChange" : false,
    "parameters" : [ "'footer_menu912'", "200", "'Menu Mang Test'", "'terminal'", "'MB'" ]
  }, {
    "name" : "test_create[NO-Menu Mang Test2-footer_menu363-desktop-200]",
    "uid" : "5b3cf9ff872f97e1",
    "parentUid" : "b1a8273437954620fa374b796ffaacdd",
    "status" : "passed",
    "time" : {
      "start" : 1650631756715,
      "stop" : 1650631757021,
      "duration" : 306
    },
    "flaky" : false,
    "newFailed" : false,
    "newPassed" : false,
    "newBroken" : false,
    "retriesCount" : 0,
    "retriesStatusChange" : false,
    "parameters" : [ "'footer_menu363'", "200", "'Menu Mang Test2'", "'desktop'", "'NO'" ]
  }, {
    "name" : "test_index[MB]",
    "uid" : "256bd8a2255ed0e1",
    "parentUid" : "b1a8273437954620fa374b796ffaacdd",
    "status" : "passed",
    "time" : {
      "start" : 1650631757044,
      "stop" : 1650631757373,
      "duration" : 329
    },
    "flaky" : false,
    "newFailed" : false,
    "newPassed" : false,
    "newBroken" : false,
    "retriesCount" : 0,
    "retriesStatusChange" : false,
    "parameters" : [ "'MB'" ]
  }, {
    "name" : "test_index[NO]",
    "uid" : "7f3f8279552917c8",
    "parentUid" : "b1a8273437954620fa374b796ffaacdd",
    "status" : "passed",
    "time" : {
      "start" : 1650631757377,
      "stop" : 1650631757721,
      "duration" : 344
    },
    "flaky" : false,
    "newFailed" : false,
    "newPassed" : false,
    "newBroken" : false,
    "retriesCount" : 0,
    "retriesStatusChange" : false,
    "parameters" : [ "'NO'" ]
  }, {
    "name" : "test_update[MB]",
    "uid" : "6a54d70015602882",
    "parentUid" : "b1a8273437954620fa374b796ffaacdd",
    "status" : "passed",
    "time" : {
      "start" : 1650631757738,
      "stop" : 1650631758032,
      "duration" : 294
    },
    "flaky" : false,
    "newFailed" : false,
    "newPassed" : false,
    "newBroken" : false,
    "retriesCount" : 0,
    "retriesStatusChange" : false,
    "parameters" : [ "'MB'" ]
  }, {
    "name" : "test_update[NO]",
    "uid" : "9dd8288b87fbec3",
    "parentUid" : "b1a8273437954620fa374b796ffaacdd",
    "status" : "passed",
    "time" : {
      "start" : 1650631758049,
      "stop" : 1650631758407,
      "duration" : 358
    },
    "flaky" : false,
    "newFailed" : false,
    "newPassed" : false,
    "newBroken" : false,
    "retriesCount" : 0,
    "retriesStatusChange" : false,
    "parameters" : [ "'NO'" ]
  }, {
    "name" : "test_delete[MB]",
    "uid" : "1952bed681da0a91",
    "parentUid" : "b1a8273437954620fa374b796ffaacdd",
    "status" : "passed",
    "time" : {
      "start" : 1650631758411,
      "stop" : 1650631759052,
      "duration" : 641
    },
    "flaky" : false,
    "newFailed" : false,
    "newPassed" : false,
    "newBroken" : false,
    "retriesCount" : 0,
    "retriesStatusChange" : false,
    "parameters" : [ "'MB'" ]
  }, {
    "name" : "test_delete[NO]",
    "uid" : "7cfaa8ce4c327662",
    "parentUid" : "b1a8273437954620fa374b796ffaacdd",
    "status" : "passed",
    "time" : {
      "start" : 1650631759058,
      "stop" : 1650631759649,
      "duration" : 591
    },
    "flaky" : false,
    "newFailed" : false,
    "newPassed" : false,
    "newBroken" : false,
    "retriesCount" : 0,
    "retriesStatusChange" : false,
    "parameters" : [ "'NO'" ]
  } ]
}